{"properties": [
  {
    "name": "ebs.version",
    "type": "java.lang.String",
    "description": "A description for 'ebs.version'"
  },
  {
    "name": "ebs.cb.api.endpoint",
    "type": "java.lang.String",
    "description": "A description for 'ebs.cb.api.endpoint'"
  },
  {
    "name": "ebs.cb.graphql.endpoint",
    "type": "java.lang.String",
    "description": "A description for 'ebs.cb.graphql.endpoint'"
  },
  {
    "name": "ebs.file.api.endpoint",
    "type": "java.lang.String",
    "description": "A description for 'ebs.file.api.endpoint'"
  },
  {
    "name": "ebs.cs.graphql.endpoint",
    "type": "java.lang.String",
    "description": "A description for 'ebs.cs.graphql.endpoint'"
  },
  {
    "name": "ebs.cs.auth.client_id",
    "type": "java.lang.String",
    "description": "A description for 'ebs.cs.auth.client_id'"
  },
  {
    "name": "ebs.cs.auth.client_secret",
    "type": "java.lang.String",
    "description": "A description for 'ebs.cs.auth.client_secret'"
  },
  {
    "name": "ebs.cs.auth.username",
    "type": "java.lang.String",
    "description": "A description for 'ebs.cs.auth.username'"
  },
  {
    "name": "ebs.gigwa.loader.enabled",
    "type": "java.lang.String",
    "description": "A description for 'ebs.gigwa.loader.enabled'"
  },
  {
    "name": "ebs.cs.auth.password",
    "type": "java.lang.String",
    "description": "A description for 'ebs.cs.auth.password'"
  },
  {
    "name": "ebs.cs.auth.endpoint",
    "type": "java.lang.String",
    "description": "A description for 'ebs.cs.auth.endpoint'"
  },
  {
    "name": "ebs.gigwa.loader.delay_time_seconds",
    "type": "java.lang.String",
    "description": "A description for 'ebs.gigwa.loader.delay_time_seconds'"
  },
  {
    "name": "ebs.gigwa.username",
    "type": "java.lang.String",
    "description": "A description for 'ebs.gigwa.username'"
  },
  {
    "name": "ebs.gigwa.password",
    "type": "java.lang.String",
    "description": "A description for 'ebs.gigwa.password'"
  },
  {
    "name": "ebs.gigwa.api.endpoint",
    "type": "java.lang.String",
    "description": "A description for 'ebs.gigwa.api.endpoint'"
  },
  {
    "name": "ebs.marker.graphql.endpoint",
    "type": "java.lang.String",
    "description": "A description for 'ebs.marker.graphql.endpoint'"
  },
  {
    "name": "ebs.asyncTask.core-pool-size",
    "type": "java.lang.String",
    "description": "A description for 'ebs.asyncTask.core-pool-size'"
  },
  {
    "name": "ebs.asyncTask.maxPoolSize",
    "type": "java.lang.String",
    "description": "A description for 'ebs.asyncTask.maxPoolSize'"
  },
  {
    "name": "ebs.asyncTask.queueCapacity",
    "type": "java.lang.String",
    "description": "A description for 'ebs.asyncTask.queueCapacity'"
  },
  {
    "name": "sm.report.load-excel-eIBLDGSDARTAGList-intertek-order-extraction",
    "type": "java.lang.String",
    "description": "A description for 'sm.report.load-excel-eIBLDGSDARTAGList-intertek-order-extraction'"
  },
  {
    "name": "sm.report.loadExcelIntertekLDGSOrderExtraction",
    "type": "java.lang.String",
    "description": "A description for 'sm.report.loadExcelIntertekLDGSOrderExtraction'"
  },
  {
    "name": "sm.report.loadExcelEIBDARTAGListIntertekOrderExtraction",
    "type": "java.lang.String",
    "description": "A description for 'sm.report.loadExcelEIBDARTAGListIntertekOrderExtraction'"
  },
  {
    "name": "sm.report.loadExcelAgriplex",
    "type": "java.lang.String",
    "description": "A description for 'sm.report.loadExcelAgriplex'"
  }
]}